<svg width="27" height="27" viewBox="0 0 27 27" fill="none" xmlns="http://www.w3.org/2000/svg">
    <g opacity="0.5">
        <rect y="2.12134" width="3" height="34" rx="1.5" transform="rotate(-45 0 2.12134)" fill="#333333"/>
        <rect x="24.043" y="0.000244141" width="3" height="34" rx="1.5" transform="rotate(45 24.043 0.000244141)" fill="#333333"/>
    </g>
</svg>
