<svg xmlns="http://www.w3.org/2000/svg" width="140" height="140" viewBox="0 0 140 140" class="login-form__image"
     aria-hidden="true">
    <g fill="none" fill-rule="evenodd" transform="matrix(-1 0 0 1 134.474 3.03)">
        <circle cx="28.553" cy="60.523" r="24.868" fill="#FFF" stroke="#000" stroke-width="2.993"
                transform="rotate(9 28.553 60.523)"></circle>
        <circle cx="23.517" cy="56.991" r="2.763" fill="#000" transform="rotate(9 23.517 56.991)"></circle>
        <circle cx="37.422" cy="47.007" r="2.763" fill="#000" transform="rotate(9 37.422 47.007)"></circle>
        <path stroke="#000" stroke-width="2.993"
              d="M10.891 91.506h0c4.66 23.968 26.247 39.936 48.218 35.665M62.345 80.221h0c.373 21.362 18.817 38.362 41.196 37.971"></path>
        <path fill="#C3E6FB" stroke="#000" stroke-width="2.993"
              d="M10.647 118.576c5.762 1.329 10.188 2.712 18.478 6.863 12.022-6.647 26.478-8.934 43.367-6.863 11.594-7.73 24.363-10.437 38.305-8.121"></path>
        <path fill="#C3E6FB" stroke="#000" stroke-width="2.993"
              d="M76.468 97.77c-6.408 0-11.836 2.995-16.332 8.875-.191.25-.377.5-.557.75-.308-.066-.618-.13-.928-.193-7.38-1.489-14.853-1.95-22.42-1.384-6.808.51-13.865 3.168-21.186 7.93 2.886 1.192 7.647 2.727 14.273 4.626 14.513-7.312 28.14-7.45 40.89-.506 2.268-4.324 6.581-7.607 13.069-9.734 5.545-1.817 12.715-2.796 21.514-2.91l-12.062-6.14c-4.212-.88-9.633-1.313-16.26-1.313z"></path>
        <path stroke="#000" stroke-width="2.993"
              d="M31.366 63.16c1.48 2.669 4.843 3.633 7.513 2.154h0c2.669-1.48 3.633-4.844 2.154-7.513"></path>
        <path fill="#FCE434"
              d="M92.107 85.885L94.208 73.124 84.183 63.127 97.425 60.814 97.425 60.814 103.817 47.2 109.502 60.814 122.868 63.127 113.462 73.124 115.599 85.885 103.817 80.404"
              transform="rotate(33 103.526 66.542)"></path>
        <path fill="#FCE434"
              d="M73.301 29.993L77.563 20.918 81.353 29.993 90.263 31.535 83.993 38.2 85.418 46.707 77.563 43.054 69.756 46.707 71.157 38.2 64.474 31.535"
              transform="rotate(-17 77.368 33.812)"></path>
        <path fill="#FFA717"
              d="M106.902 15.435L110.554 7.656 113.803 15.435 121.441 16.757 116.066 22.47 117.287 29.761 110.554 26.63 103.863 29.761 105.064 22.47 99.335 16.757z"
              transform="rotate(21 110.388 18.709)"></path>
        <path fill="#FFA717"
              d="M51.201 9.39L53.94 3.556 56.377 9.39 62.105 10.382 58.074 14.666 58.99 20.135 53.94 17.786 48.922 20.135 49.822 14.666 45.526 10.382z"
              transform="rotate(-31 53.816 11.846)"></path>
        <path fill="#EB5A40"
              d="M55.73 109.532c8.315 6.604 12.605 13.715 12.871 21.335 2.665 1.071 4.962 1.593 6.89 1.566-6.267-14.325-11.765-21.997-16.494-23.015-4.73-1.019-5.818-.98-3.267.114z"></path>
    </g>
</svg>