<svg width="48" height="48" viewBox="0 0 48 48" fill="none" xmlns="http://www.w3.org/2000/svg">
<path d="M7.34 45.8L11.22 48L24 39.6L36.78 48L40.68 45.8L37.9 30.54L48 20V16L32.68 14.8L26 0H22L15.32 14.8L0 16V20L10.12 30.54L7.34 45.8ZM5.06 19.8L18 18.54L24 5.22L30 18.54L42.96 19.86L33.6 29.18L36 42.82L24 34.82L12 42.82L14.48 29.18L5.06 19.8Z" fill="#53B561"/>
</svg>
